…
add_missing <- function(df){
  if(is.numeric(df)){
    df = replace_na(df, mean(df, na.rm = TRUE))
  } else if(is.character(df)){
    df = replace_na(df, "virginica")
  }
}

map_df(iris_with_missing, add_missing)
```

    ## # A tibble: 150 x 5
    ##    Sepal.Length Sepal.Width Petal.Length Petal.Width Species
    ##           <dbl>       <dbl>        <dbl>       <dbl> <chr>  
    ##  1         5.1          3.5         1.4         0.2  setosa 
    ##  2         4.9          3           1.4         0.2  setosa 
    ##  3         4.7          3.2         1.3         0.2  setosa 
    ##  4         4.6          3.1         1.5         1.19 setosa 
    ##  5         5            3.6         1.4         0.2  setosa 
    ##  6         5.4          3.9         1.7         0.4  setosa 
    ##  7         5.82         3.4         1.4         0.3  setosa 
    ##  8         5            3.4         1.5         0.2  setosa 
    ##  9         4.4          2.9         1.4         0.2  setosa 
    ## 10         4.9          3.1         3.77        0.1  setosa 
    ## # ... with 140 more rows
…
   tidy_test = broom::tidy(fit_line)
   
   tibble(beta1_hat = tidy_test[[2,2]],
          p_value = tidy_test[[2,5]])
}

output <- vector("list", length = 10000)
for(i in 1:10000){
  output[[i]] = sim_model(0)
}
sim_result0 <- bind_rows(output)
sim_result0
```

    ## # A tibble: 10,000 x 2
    ##    beta1_hat  p_value
    ##        <dbl>    <dbl>
    ##  1     2.02  0.207   
    ##  2     1.23  0.182   
    ##  3     0.603 0.606   
    ##  4     3.03  0.000149
    ##  5    -1.19  0.471   
    ##  6    -1.49  0.219   
    ##  7    -1.97  0.192   
    ##  8     0.331 0.769   
    ##  9     0.576 0.670   
    ## 10     2.40  0.134   
    ## # ... with 9,990 more rows
…
